[
  {
    "id": "1",
    "type": "business",
    "name": "Yaroslav Isakov",
    "img": "./mockData/images/place_cat.png",
    "distance": "103м"
  },
  {
    "id": "2",
    "type": "plate",
    "name": "Шкаф",
    "img": "./mockData/images/place_plate.svg",
    "distance": "4м"
  },
  {
    "id": "3",
    "type": "car",
    "name": "Camaro",
    "img": "./mockData/images/place_car.png",
    "distance": "103м"
  },
  {
    "id": "4",
    "type": "safe",
    "name": "Сейф",
    "img": "./mockData/images/place_safe.svg",
    "distance": "23м"
  },
  {
    "id": "5",
    "type": "fridge",
    "name": "Холодильник",
    "img": "./mockData/images/place_ice.svg",
    "distance": "9м"
  },
  {
    "id": "6",
    "type": "armory",
    "name": "Оружейная",
    "img": "./mockData/images/place_gun.svg",
    "distance": "183м"
  },
  {
    "id": "7",
    "type": "warehouse",
    "name": "Склад",
    "img": "./mockData/images/place_warehouse.svg",
    "distance": "521м"
  }
]