<svg width="536" height="480" viewBox="0 0 536 480" fill="none" xmlns="http://www.w3.org/2000/svg">
<mask id="mask0_62_31115" style="mask-type:alpha" maskUnits="userSpaceOnUse" x="0" y="0" width="536" height="480">
<rect width="536" height="480" fill="white"/>
</mask>
<g mask="url(#mask0_62_31115)">
<rect width="536" height="1180" fill="url(#paint1_linear_62_31115)"/>
<rect opacity="0.05" x="651.592" y="93.1953" width="30" height="900" transform="rotate(45 651.592 93.1953)" fill="var(--r1-good-diagonals-bg)"/>
<rect opacity="0.05" x="678.914" y="95.5177" width="80" height="900" transform="rotate(45 678.914 95.5177)" fill="var(--r1-good-diagonals-bg)"/>
<rect opacity="0.1" x="525.843" y="-99.5534" width="100" height="900" transform="rotate(45 525.843 -99.5534)" fill="var(--r1-good-diagonals-bg)"/>
<rect opacity="0.18" x="604.521" y="-63.8757" width="50" height="900" transform="rotate(45 604.521 -63.8757)" fill="var(--r1-good-diagonals-bg)"/>
<rect width="536" height="5" fill="var(--r1-good-diagonals-bg)"/>
<rect y="342" width="535" height="139" fill="url(#paint2_linear_62_31115)"/>
</g>
<defs>
<linearGradient id="paint1_linear_62_31115" x1="77.8973" y1="-355.566" x2="77.8973" y2="481.453" gradientUnits="userSpaceOnUse">
<stop stop-color="var(--r1-good-bg)" stop-opacity="0.01"/>
<stop offset="1" stop-color="var(--r1-good-bg)"/>
</linearGradient>
<linearGradient id="paint2_linear_62_31115" x1="33.4976" y1="359.406" x2="33.4976" y2="481" gradientUnits="userSpaceOnUse">
<stop stop-color="var(--r1-good-bg)" stop-opacity="0.01"/>
<stop offset="1" stop-color="var(--r1-good-bg)"/>
</linearGradient>
</defs>
</svg>
