<svg width="663" height="183" viewBox="0 0 663 183" fill="none" xmlns="http://www.w3.org/2000/svg">
<g filter="url(#filter0_d_47_11847)">
<path d="M146.102 133.528L148.082 143.426L157.98 145.406L148.082 147.386L146.102 157.284L144.121 147.386L134.223 145.406L144.121 143.426L146.102 133.528Z" fill="black"/>
</g>
<path d="M146.102 133.528L148.082 143.426L157.98 145.406L148.082 147.386L146.102 157.284L144.121 147.386L134.223 145.406L144.121 143.426L146.102 133.528Z" fill="white"/>
<g opacity="0.55">
<g opacity="0.55" filter="url(#filter1_d_47_11847)">
<path d="M279.137 70.5737L281.117 80.4718L291.015 82.4519L281.117 84.432L279.137 94.3301L277.157 84.432L267.259 82.4519L277.157 80.4718L279.137 70.5737Z" fill="black"/>
</g>
<path opacity="0.55" d="M279.137 70.5737L281.117 80.4718L291.015 82.4519L281.117 84.432L279.137 94.3301L277.157 84.432L267.259 82.4519L277.157 80.4718L279.137 70.5737Z" fill="white"/>
</g>
<g filter="url(#filter2_d_47_11847)">
<path d="M579.655 183.416L581.635 193.314L591.533 195.294L581.635 197.274L579.655 207.172L577.675 197.274L567.777 195.294L577.675 193.314L579.655 183.416Z" fill="black"/>
</g>
<g filter="url(#filter3_d_47_11847)">
<path d="M87.8985 115.71L89.2835 122.639L96.2132 124.025L89.2835 125.411L87.8985 132.34L86.5123 125.411L79.5838 124.025L86.5123 122.639L87.8985 115.71Z" fill="black"/>
</g>
<path d="M87.8985 115.71L89.2835 122.639L96.2132 124.025L89.2835 125.411L87.8985 132.34L86.5123 125.411L79.5838 124.025L86.5123 122.639L87.8985 115.71Z" fill="white"/>
<g filter="url(#filter4_d_47_11847)">
<path d="M8.31472 198.858L9.69972 205.786L16.6294 207.173L9.69972 208.559L8.31472 215.487L6.92854 208.559L0 207.173L6.92854 205.786L8.31472 198.858Z" fill="black"/>
</g>
<g filter="url(#filter5_d_47_11847)">
<path d="M340.904 124.025L342.289 130.954L349.218 132.34L342.289 133.726L340.904 140.655L339.517 133.726L332.589 132.34L339.517 130.954L340.904 124.025Z" fill="black"/>
</g>
<path d="M340.904 124.025L342.289 130.954L349.218 132.34L342.289 133.726L340.904 140.655L339.517 133.726L332.589 132.34L339.517 130.954L340.904 124.025Z" fill="white"/>
<g filter="url(#filter6_d_47_11847)">
<path d="M412.173 71.7612L413.558 78.6898L420.487 80.076L413.558 81.4621L412.173 88.3907L410.786 81.4621L403.858 80.076L410.786 78.6898L412.173 71.7612Z" fill="black"/>
</g>
<path d="M412.173 71.7612L413.558 78.6898L420.487 80.076L413.558 81.4621L412.173 88.3907L410.786 81.4621L403.858 80.076L410.786 78.6898L412.173 71.7612Z" fill="white"/>
<g filter="url(#filter7_d_47_11847)">
<path d="M364.66 29L366.045 35.9285L372.975 37.3147L366.045 38.7009L364.66 45.6294L363.274 38.7009L356.345 37.3147L363.274 35.9285L364.66 29Z" fill="black"/>
</g>
<path d="M364.66 29L366.045 35.9285L372.975 37.3147L366.045 38.7009L364.66 45.6294L363.274 38.7009L356.345 37.3147L363.274 35.9285L364.66 29Z" fill="white"/>
<g filter="url(#filter8_d_47_11847)">
<path d="M495.32 159.66L496.705 166.588L503.635 167.974L496.705 169.361L495.32 176.289L493.934 169.361L487.005 167.974L493.934 166.588L495.32 159.66Z" fill="black"/>
</g>
<path d="M495.32 159.66L496.705 166.588L503.635 167.974L496.705 169.361L495.32 176.289L493.934 169.361L487.005 167.974L493.934 166.588L495.32 159.66Z" fill="white"/>
<g opacity="0.413">
<g opacity="0.413" filter="url(#filter9_d_47_11847)">
<path d="M625.98 76.5127L627.365 83.4412L634.294 84.8274L627.365 86.2136L625.98 93.1421L624.594 86.2136L617.665 84.8274L624.594 83.4412L625.98 76.5127Z" fill="black"/>
</g>
<path opacity="0.413" d="M625.98 76.5127L627.365 83.4412L634.294 84.8274L627.365 86.2136L625.98 93.1421L624.594 86.2136L617.665 84.8274L624.594 83.4412L625.98 76.5127Z" fill="white"/>
</g>
<g opacity="0.3">
<g opacity="0.3" filter="url(#filter10_d_47_11847)">
<path d="M435.929 43.2539L436.918 48.2035L441.868 49.193L436.918 50.1824L435.929 55.1321L434.939 50.1824L429.99 49.193L434.939 48.2035L435.929 43.2539Z" fill="black"/>
</g>
<path opacity="0.3" d="M435.929 43.2539L436.918 48.2035L441.868 49.193L436.918 50.1824L435.929 55.1321L434.939 50.1824L429.99 49.193L434.939 48.2035L435.929 43.2539Z" fill="white"/>
</g>
<g filter="url(#filter11_d_47_11847)">
<path d="M210.244 67.0103L211.233 71.9599L216.183 72.9493L211.233 73.9388L210.244 78.8884L209.254 73.9388L204.305 72.9493L209.254 71.9599L210.244 67.0103Z" fill="black"/>
</g>
<path d="M210.244 67.0103L211.233 71.9599L216.183 72.9493L211.233 73.9388L210.244 78.8884L209.254 73.9388L204.305 72.9493L209.254 71.9599L210.244 67.0103Z" fill="white"/>
<g filter="url(#filter12_d_47_11847)">
<path d="M67.7056 159.66L68.695 164.609L73.6447 165.599L68.695 166.588L67.7056 171.538L66.7161 166.588L61.7665 165.599L66.7161 164.609L67.7056 159.66Z" fill="black"/>
</g>
<path d="M67.7056 159.66L68.695 164.609L73.6447 165.599L68.695 166.588L67.7056 171.538L66.7161 166.588L61.7665 165.599L66.7161 164.609L67.7056 159.66Z" fill="white"/>
<g opacity="0.3">
<g opacity="0.3" filter="url(#filter13_d_47_11847)">
<path d="M32.0711 40.8779L33.0605 45.8276L38.0101 46.817L33.0605 47.8065L32.0711 52.7561L31.0816 47.8065L26.132 46.817L31.0816 45.8276L32.0711 40.8779Z" fill="black"/>
</g>
<path opacity="0.3" d="M32.0711 40.8779L33.0605 45.8276L38.0101 46.817L33.0605 47.8065L32.0711 52.7561L31.0816 47.8065L26.132 46.817L31.0816 45.8276L32.0711 40.8779Z" fill="white"/>
</g>
<g filter="url(#filter14_d_47_11847)">
<path d="M412.173 150.157L413.162 155.107L418.112 156.096L413.162 157.086L412.173 162.035L411.183 157.086L406.234 156.096L411.183 155.107L412.173 150.157Z" fill="black"/>
</g>
<path d="M412.173 150.157L413.162 155.107L418.112 156.096L413.162 157.086L412.173 162.035L411.183 157.086L406.234 156.096L411.183 155.107L412.173 150.157Z" fill="white"/>
<g opacity="0.15">
<g opacity="0.15" filter="url(#filter15_d_47_11847)">
<path d="M400.294 197.67L401.284 202.62L406.234 203.609L401.284 204.598L400.294 209.548L399.305 204.598L394.355 203.609L399.305 202.62L400.294 197.67Z" fill="black"/>
</g>
</g>
<defs>
<filter id="filter0_d_47_11847" x="105.716" y="105.02" width="80.7716" height="80.7716" filterUnits="userSpaceOnUse" color-interpolation-filters="sRGB">
<feFlood flood-opacity="0" result="BackgroundImageFix"/>
<feColorMatrix in="SourceAlpha" type="matrix" values="0 0 0 0 0 0 0 0 0 0 0 0 0 0 0 0 0 0 127 0" result="hardAlpha"/>
<feOffset/>
<feGaussianBlur stdDeviation="14.2538"/>
<feColorMatrix type="matrix" values="0 0 0 0 1 0 0 0 0 1 0 0 0 0 1 0 0 0 0.5 0"/>
<feBlend mode="normal" in2="BackgroundImageFix" result="effect1_dropShadow_47_11847"/>
<feBlend mode="normal" in="SourceGraphic" in2="effect1_dropShadow_47_11847" result="shape"/>
</filter>
<filter id="filter1_d_47_11847" x="238.751" y="42.0661" width="80.7716" height="80.7716" filterUnits="userSpaceOnUse" color-interpolation-filters="sRGB">
<feFlood flood-opacity="0" result="BackgroundImageFix"/>
<feColorMatrix in="SourceAlpha" type="matrix" values="0 0 0 0 0 0 0 0 0 0 0 0 0 0 0 0 0 0 127 0" result="hardAlpha"/>
<feOffset/>
<feGaussianBlur stdDeviation="14.2538"/>
<feColorMatrix type="matrix" values="0 0 0 0 1 0 0 0 0 1 0 0 0 0 1 0 0 0 0.5 0"/>
<feBlend mode="normal" in2="BackgroundImageFix" result="effect1_dropShadow_47_11847"/>
<feBlend mode="normal" in="SourceGraphic" in2="effect1_dropShadow_47_11847" result="shape"/>
</filter>
<filter id="filter2_d_47_11847" x="539.269" y="154.908" width="80.7716" height="80.7716" filterUnits="userSpaceOnUse" color-interpolation-filters="sRGB">
<feFlood flood-opacity="0" result="BackgroundImageFix"/>
<feColorMatrix in="SourceAlpha" type="matrix" values="0 0 0 0 0 0 0 0 0 0 0 0 0 0 0 0 0 0 127 0" result="hardAlpha"/>
<feOffset/>
<feGaussianBlur stdDeviation="14.2538"/>
<feColorMatrix type="matrix" values="0 0 0 0 1 0 0 0 0 1 0 0 0 0 1 0 0 0 0.5 0"/>
<feBlend mode="normal" in2="BackgroundImageFix" result="effect1_dropShadow_47_11847"/>
<feBlend mode="normal" in="SourceGraphic" in2="effect1_dropShadow_47_11847" result="shape"/>
</filter>
<filter id="filter3_d_47_11847" x="51.0761" y="87.2028" width="73.6447" height="73.6446" filterUnits="userSpaceOnUse" color-interpolation-filters="sRGB">
<feFlood flood-opacity="0" result="BackgroundImageFix"/>
<feColorMatrix in="SourceAlpha" type="matrix" values="0 0 0 0 0 0 0 0 0 0 0 0 0 0 0 0 0 0 127 0" result="hardAlpha"/>
<feOffset/>
<feGaussianBlur stdDeviation="14.2538"/>
<feColorMatrix type="matrix" values="0 0 0 0 1 0 0 0 0 1 0 0 0 0 1 0 0 0 0.5 0"/>
<feBlend mode="normal" in2="BackgroundImageFix" result="effect1_dropShadow_47_11847"/>
<feBlend mode="normal" in="SourceGraphic" in2="effect1_dropShadow_47_11847" result="shape"/>
</filter>
<filter id="filter4_d_47_11847" x="-28.5076" y="170.35" width="73.6447" height="73.6446" filterUnits="userSpaceOnUse" color-interpolation-filters="sRGB">
<feFlood flood-opacity="0" result="BackgroundImageFix"/>
<feColorMatrix in="SourceAlpha" type="matrix" values="0 0 0 0 0 0 0 0 0 0 0 0 0 0 0 0 0 0 127 0" result="hardAlpha"/>
<feOffset/>
<feGaussianBlur stdDeviation="14.2538"/>
<feColorMatrix type="matrix" values="0 0 0 0 1 0 0 0 0 1 0 0 0 0 1 0 0 0 0.5 0"/>
<feBlend mode="normal" in2="BackgroundImageFix" result="effect1_dropShadow_47_11847"/>
<feBlend mode="normal" in="SourceGraphic" in2="effect1_dropShadow_47_11847" result="shape"/>
</filter>
<filter id="filter5_d_47_11847" x="304.081" y="95.5178" width="73.6447" height="73.6446" filterUnits="userSpaceOnUse" color-interpolation-filters="sRGB">
<feFlood flood-opacity="0" result="BackgroundImageFix"/>
<feColorMatrix in="SourceAlpha" type="matrix" values="0 0 0 0 0 0 0 0 0 0 0 0 0 0 0 0 0 0 127 0" result="hardAlpha"/>
<feOffset/>
<feGaussianBlur stdDeviation="14.2538"/>
<feColorMatrix type="matrix" values="0 0 0 0 1 0 0 0 0 1 0 0 0 0 1 0 0 0 0.5 0"/>
<feBlend mode="normal" in2="BackgroundImageFix" result="effect1_dropShadow_47_11847"/>
<feBlend mode="normal" in="SourceGraphic" in2="effect1_dropShadow_47_11847" result="shape"/>
</filter>
<filter id="filter6_d_47_11847" x="375.35" y="43.2536" width="73.6447" height="73.6446" filterUnits="userSpaceOnUse" color-interpolation-filters="sRGB">
<feFlood flood-opacity="0" result="BackgroundImageFix"/>
<feColorMatrix in="SourceAlpha" type="matrix" values="0 0 0 0 0 0 0 0 0 0 0 0 0 0 0 0 0 0 127 0" result="hardAlpha"/>
<feOffset/>
<feGaussianBlur stdDeviation="14.2538"/>
<feColorMatrix type="matrix" values="0 0 0 0 1 0 0 0 0 1 0 0 0 0 1 0 0 0 0.5 0"/>
<feBlend mode="normal" in2="BackgroundImageFix" result="effect1_dropShadow_47_11847"/>
<feBlend mode="normal" in="SourceGraphic" in2="effect1_dropShadow_47_11847" result="shape"/>
</filter>
<filter id="filter7_d_47_11847" x="327.838" y="0.492384" width="73.6447" height="73.6446" filterUnits="userSpaceOnUse" color-interpolation-filters="sRGB">
<feFlood flood-opacity="0" result="BackgroundImageFix"/>
<feColorMatrix in="SourceAlpha" type="matrix" values="0 0 0 0 0 0 0 0 0 0 0 0 0 0 0 0 0 0 127 0" result="hardAlpha"/>
<feOffset/>
<feGaussianBlur stdDeviation="14.2538"/>
<feColorMatrix type="matrix" values="0 0 0 0 1 0 0 0 0 1 0 0 0 0 1 0 0 0 0.5 0"/>
<feBlend mode="normal" in2="BackgroundImageFix" result="effect1_dropShadow_47_11847"/>
<feBlend mode="normal" in="SourceGraphic" in2="effect1_dropShadow_47_11847" result="shape"/>
</filter>
<filter id="filter8_d_47_11847" x="458.497" y="131.152" width="73.6447" height="73.6446" filterUnits="userSpaceOnUse" color-interpolation-filters="sRGB">
<feFlood flood-opacity="0" result="BackgroundImageFix"/>
<feColorMatrix in="SourceAlpha" type="matrix" values="0 0 0 0 0 0 0 0 0 0 0 0 0 0 0 0 0 0 127 0" result="hardAlpha"/>
<feOffset/>
<feGaussianBlur stdDeviation="14.2538"/>
<feColorMatrix type="matrix" values="0 0 0 0 1 0 0 0 0 1 0 0 0 0 1 0 0 0 0.5 0"/>
<feBlend mode="normal" in2="BackgroundImageFix" result="effect1_dropShadow_47_11847"/>
<feBlend mode="normal" in="SourceGraphic" in2="effect1_dropShadow_47_11847" result="shape"/>
</filter>
<filter id="filter9_d_47_11847" x="589.157" y="48.0051" width="73.6447" height="73.6446" filterUnits="userSpaceOnUse" color-interpolation-filters="sRGB">
<feFlood flood-opacity="0" result="BackgroundImageFix"/>
<feColorMatrix in="SourceAlpha" type="matrix" values="0 0 0 0 0 0 0 0 0 0 0 0 0 0 0 0 0 0 127 0" result="hardAlpha"/>
<feOffset/>
<feGaussianBlur stdDeviation="14.2538"/>
<feColorMatrix type="matrix" values="0 0 0 0 1 0 0 0 0 1 0 0 0 0 1 0 0 0 0.5 0"/>
<feBlend mode="normal" in2="BackgroundImageFix" result="effect1_dropShadow_47_11847"/>
<feBlend mode="normal" in="SourceGraphic" in2="effect1_dropShadow_47_11847" result="shape"/>
</filter>
<filter id="filter10_d_47_11847" x="401.482" y="14.7463" width="68.8934" height="68.8932" filterUnits="userSpaceOnUse" color-interpolation-filters="sRGB">
<feFlood flood-opacity="0" result="BackgroundImageFix"/>
<feColorMatrix in="SourceAlpha" type="matrix" values="0 0 0 0 0 0 0 0 0 0 0 0 0 0 0 0 0 0 127 0" result="hardAlpha"/>
<feOffset/>
<feGaussianBlur stdDeviation="14.2538"/>
<feColorMatrix type="matrix" values="0 0 0 0 1 0 0 0 0 1 0 0 0 0 1 0 0 0 0.5 0"/>
<feBlend mode="normal" in2="BackgroundImageFix" result="effect1_dropShadow_47_11847"/>
<feBlend mode="normal" in="SourceGraphic" in2="effect1_dropShadow_47_11847" result="shape"/>
</filter>
<filter id="filter11_d_47_11847" x="175.797" y="38.5026" width="68.8934" height="68.8937" filterUnits="userSpaceOnUse" color-interpolation-filters="sRGB">
<feFlood flood-opacity="0" result="BackgroundImageFix"/>
<feColorMatrix in="SourceAlpha" type="matrix" values="0 0 0 0 0 0 0 0 0 0 0 0 0 0 0 0 0 0 127 0" result="hardAlpha"/>
<feOffset/>
<feGaussianBlur stdDeviation="14.2538"/>
<feColorMatrix type="matrix" values="0 0 0 0 1 0 0 0 0 1 0 0 0 0 1 0 0 0 0.5 0"/>
<feBlend mode="normal" in2="BackgroundImageFix" result="effect1_dropShadow_47_11847"/>
<feBlend mode="normal" in="SourceGraphic" in2="effect1_dropShadow_47_11847" result="shape"/>
</filter>
<filter id="filter12_d_47_11847" x="33.2589" y="131.152" width="68.8934" height="68.8937" filterUnits="userSpaceOnUse" color-interpolation-filters="sRGB">
<feFlood flood-opacity="0" result="BackgroundImageFix"/>
<feColorMatrix in="SourceAlpha" type="matrix" values="0 0 0 0 0 0 0 0 0 0 0 0 0 0 0 0 0 0 127 0" result="hardAlpha"/>
<feOffset/>
<feGaussianBlur stdDeviation="14.2538"/>
<feColorMatrix type="matrix" values="0 0 0 0 1 0 0 0 0 1 0 0 0 0 1 0 0 0 0.5 0"/>
<feBlend mode="normal" in2="BackgroundImageFix" result="effect1_dropShadow_47_11847"/>
<feBlend mode="normal" in="SourceGraphic" in2="effect1_dropShadow_47_11847" result="shape"/>
</filter>
<filter id="filter13_d_47_11847" x="-2.37564" y="12.3703" width="68.8934" height="68.8932" filterUnits="userSpaceOnUse" color-interpolation-filters="sRGB">
<feFlood flood-opacity="0" result="BackgroundImageFix"/>
<feColorMatrix in="SourceAlpha" type="matrix" values="0 0 0 0 0 0 0 0 0 0 0 0 0 0 0 0 0 0 127 0" result="hardAlpha"/>
<feOffset/>
<feGaussianBlur stdDeviation="14.2538"/>
<feColorMatrix type="matrix" values="0 0 0 0 1 0 0 0 0 1 0 0 0 0 1 0 0 0 0.5 0"/>
<feBlend mode="normal" in2="BackgroundImageFix" result="effect1_dropShadow_47_11847"/>
<feBlend mode="normal" in="SourceGraphic" in2="effect1_dropShadow_47_11847" result="shape"/>
</filter>
<filter id="filter14_d_47_11847" x="377.726" y="121.65" width="68.8934" height="68.8932" filterUnits="userSpaceOnUse" color-interpolation-filters="sRGB">
<feFlood flood-opacity="0" result="BackgroundImageFix"/>
<feColorMatrix in="SourceAlpha" type="matrix" values="0 0 0 0 0 0 0 0 0 0 0 0 0 0 0 0 0 0 127 0" result="hardAlpha"/>
<feOffset/>
<feGaussianBlur stdDeviation="14.2538"/>
<feColorMatrix type="matrix" values="0 0 0 0 1 0 0 0 0 1 0 0 0 0 1 0 0 0 0.5 0"/>
<feBlend mode="normal" in2="BackgroundImageFix" result="effect1_dropShadow_47_11847"/>
<feBlend mode="normal" in="SourceGraphic" in2="effect1_dropShadow_47_11847" result="shape"/>
</filter>
<filter id="filter15_d_47_11847" x="365.848" y="169.162" width="68.8934" height="68.8932" filterUnits="userSpaceOnUse" color-interpolation-filters="sRGB">
<feFlood flood-opacity="0" result="BackgroundImageFix"/>
<feColorMatrix in="SourceAlpha" type="matrix" values="0 0 0 0 0 0 0 0 0 0 0 0 0 0 0 0 0 0 127 0" result="hardAlpha"/>
<feOffset/>
<feGaussianBlur stdDeviation="14.2538"/>
<feColorMatrix type="matrix" values="0 0 0 0 1 0 0 0 0 1 0 0 0 0 1 0 0 0 0.5 0"/>
<feBlend mode="normal" in2="BackgroundImageFix" result="effect1_dropShadow_47_11847"/>
<feBlend mode="normal" in="SourceGraphic" in2="effect1_dropShadow_47_11847" result="shape"/>
</filter>
</defs>
</svg>
