<svg width="20" height="24" viewBox="0 0 20 24" xmlns="http://www.w3.org/2000/svg">
<path d="M19.5375 16.0264C19.4515 15.9228 19.3671 15.8192 19.2842 15.7192C18.1443 14.3404 17.4546 13.5083 17.4546 9.60518C17.4546 7.58446 16.9712 5.92642 16.0183 4.6829C15.3158 3.76425 14.366 3.06736 13.1142 2.55233C13.0981 2.54337 13.0837 2.53162 13.0717 2.51762C12.6215 1.00984 11.3893 0 9.99969 0C8.61006 0 7.37845 1.00984 6.92819 2.51606C6.91618 2.52955 6.90199 2.54093 6.88622 2.54974C3.96498 3.75233 2.54529 6.05959 2.54529 9.60363C2.54529 13.5083 1.85669 14.3404 0.715757 15.7176C0.632856 15.8176 0.5484 15.9192 0.462389 16.0249C0.00872213 16.572 -0.0853406 17.333 0.221457 17.9741C0.541146 18.6477 1.22249 19.0658 2.00021 19.0658H18.0049C18.779 19.0658 19.4557 18.6482 19.7764 17.9777C20.0845 17.3364 19.9912 16.5745 19.5375 16.0264Z" fill="currentColor"/>
<path d="M9.99968 23.2126C11.5251 23.2114 12.9267 22.3731 13.6494 21.0297C13.6834 20.9655 13.6812 20.8881 13.6437 20.8258C13.6061 20.7635 13.5387 20.7255 13.466 20.7256H6.5344C6.4616 20.7253 6.394 20.7633 6.35633 20.8256C6.31865 20.8879 6.31642 20.9654 6.35046 21.0297C7.07306 22.3729 8.47447 23.2112 9.99968 23.2126Z" fill="currentColor"/>
</svg>
