<svg width="18" height="18" viewBox="0 0 18 18" fill="none" xmlns="http://www.w3.org/2000/svg">
<path fill-rule="evenodd" clip-rule="evenodd" d="M12.23 15.8623L9.62937 13.2625C9.28203 12.9149 8.71797 12.9149 8.37062 13.2625L5.77 15.8623C5.20891 16.4234 4.25 16.0261 4.25 15.2326V3.35937C4.25 2.5397 4.915 1.875 5.73437 1.875H12.2656C13.085 1.875 13.75 2.5397 13.75 3.35937V15.2326C13.75 16.0261 12.7911 16.4234 12.23 15.8623Z" fill="#797979"/>
</svg>
