<svg width="11" height="22" viewBox="0 0 11 22" fill="none" xmlns="http://www.w3.org/2000/svg">
<path d="M10.2792 12.2816L10.8493 8.3301H7.2831V5.76699C7.2831 4.68595 7.78137 3.63107 9.37863 3.63107H11V0.26699C11 0.26699 9.52856 0 8.12167 0C5.18457 0 3.26484 1.89243 3.26484 5.31845V8.3301H0V12.2816H3.26484V21.8339C4.59616 22.0554 5.95178 22.0554 7.2831 21.8339V12.2816H10.2792Z" fill="white"/>
</svg>
