<svg width="48" height="42" viewBox="0 0 48 42" fill="none" xmlns="http://www.w3.org/2000/svg">
<g id="group">
<path id="Path" d="M24.1252 21.793C27.977 21.793 31.0989 18.6699 31.0989 14.8188C31.0989 10.9682 27.9764 7.8457 24.1252 7.8457C20.2741 7.8457 17.1504 10.9682 17.1504 14.8188C17.1504 18.6705 20.2746 21.793 24.1252 21.793Z" fill="white"/>
<path id="Path_2" d="M27.0836 22.2686H21.1662C16.2428 22.2686 12.2373 26.2746 12.2373 31.1975V38.4346L12.2557 38.5473L12.7542 38.704C17.4527 40.1715 21.5347 40.6616 24.8945 40.6616C31.457 40.6616 35.2607 38.7912 35.4951 38.6713L35.9609 38.4352H36.0107V31.1975C36.0125 26.2746 32.007 22.2686 27.0836 22.2686Z" fill="white"/>
<path id="Path_3" d="M11.8887 14.593C13.2529 14.593 14.5222 14.1954 15.5974 13.5171C15.9392 11.2877 17.1343 9.3396 18.8416 8.01275C18.8487 7.8822 18.8611 7.75284 18.8611 7.62111C18.8611 3.76934 15.7387 0.647461 11.8887 0.647461C8.03633 0.647461 4.91504 3.76934 4.91504 7.62111C4.91445 11.4717 8.03633 14.593 11.8887 14.593Z" fill="#797979"/>
<path id="Path_4" d="M18.1515 21.0565C16.5731 19.5428 15.5738 17.438 15.5008 15.1041C15.283 15.0881 15.0676 15.0703 14.8457 15.0703H8.9289C4.00546 15.0703 0 19.0758 0 23.9986V31.2357L0.0183954 31.3479L0.516852 31.5046C4.28613 32.6819 7.65012 33.2236 10.572 33.3951V31.209C10.5732 26.4155 13.7746 22.3579 18.1515 21.0565Z" fill="#797979"/>
<path id="Path_5" d="M28.6943 7.51451C30.8929 8.89298 32.4345 11.2256 32.7152 13.9333C33.6118 14.3523 34.607 14.5932 35.662 14.5932C39.5138 14.5932 42.6357 11.4713 42.6357 7.62013C42.6357 3.76837 39.5138 0.646484 35.662 0.646484C31.8471 0.647078 28.7525 3.71318 28.6943 7.51451Z" fill="#797979"/>
<path id="Path_6" d="M38.6219 15.0703H32.7502C32.6867 17.4196 31.6838 19.5345 30.0977 21.0565C34.474 22.3579 37.676 26.4155 37.676 31.209V33.4396C43.4735 33.2266 46.8144 31.5835 47.0345 31.4737L47.5003 31.2375H47.5502V23.9986C47.5502 19.0758 43.5447 15.0703 38.6219 15.0703Z" fill="#797979"/>
</g>
</svg>
