<svg width="44" height="57" viewBox="0 0 44 57" fill="#797979" xmlns="http://www.w3.org/2000/svg">
    <path d="M21.9998 0.666672C13.1363 0.666672 5.99984 7.80318 5.99984 16.6667V19.3333C3.0665 19.3333 0.666504 21.7333 0.666504 24.6667V51.3333C0.666504 54.2667 3.0665 56.6667 5.99984 56.6667H37.9998C40.9332 56.6667 43.3332 54.2667 43.3332 51.3333V24.6667C43.3332 21.7333 40.9332 19.3333 37.9998 19.3333V16.6667C37.9998 7.80318 30.8633 0.666672 21.9998 0.666672ZM21.9998 6.00001C28.0697 6.00001 32.6665 10.5968 32.6665 16.6667V19.3333H11.3332V16.6667C11.3332 10.5968 15.93 6.00001 21.9998 6.00001ZM21.9998 32.6667C24.9332 32.6667 27.3332 35.0667 27.3332 38C27.3332 40.9333 24.9332 43.3333 21.9998 43.3333C19.0665 43.3333 16.6665 40.9333 16.6665 38C16.6665 35.0667 19.0665 32.6667 21.9998 32.6667Z"/>
</svg>
