<svg width="12" height="6" viewBox="0 0 12 6" stroke="#fff" fill="none" xmlns="http://www.w3.org/2000/svg">
<path d="M2 1L6 5L10 1" stroke-width="1.6" stroke-linecap="round" stroke-linejoin="round"/>
</svg>
