<svg width="58" height="42" viewBox="0 0 58 42" fill="none" xmlns="http://www.w3.org/2000/svg">
<g id="ru">
<g id="Mask">
<g id="path-1-link">
<rect id="path-1" x="2" y="2" width="55.3333" height="39.5238" rx="1.97619" fill="white"/>
</g>
<rect id="Rectangle" x="2.49414" y="2.49414" width="54.3452" height="38.5357" rx="1.97619" stroke="#F5F5F5" stroke-width="0.737778"/>
</g>
<g id="Rectangle-2 Clipped">
<mask id="mask0_61_29182" style="mask-type:alpha" maskUnits="userSpaceOnUse" x="2" y="2" width="56" height="40">
<rect id="path-1_2" x="2" y="2" width="55.3333" height="39.5238" rx="1.97619" fill="white"/>
</mask>
<g mask="url(#mask0_61_29182)">
<rect id="Rectangle-2" x="2" y="15.1748" width="55.3333" height="13.1746" fill="#0C47B7"/>
</g>
</g>
<g id="Rectangle-2 Clipped_2">
<mask id="mask1_61_29182" style="mask-type:alpha" maskUnits="userSpaceOnUse" x="2" y="2" width="56" height="40">
<rect id="path-1_3" x="2" y="2" width="55.3333" height="39.5238" rx="1.97619" fill="white"/>
</mask>
<g mask="url(#mask1_61_29182)">
<rect id="Rectangle-2_2" x="2" y="28.3491" width="55.3333" height="13.1746" fill="#E53B35"/>
</g>
</g>
</g>
</svg>
