<svg width="32" height="32" viewBox="0 0 32 32" fill="none" xmlns="http://www.w3.org/2000/svg">
<g id="x">
<path id="Path" d="M28 4L4 28" stroke="#E34D45" stroke-width="2.5" stroke-linecap="round" stroke-linejoin="round"/>
<path id="Path_2" d="M4 4L28 28" stroke="#E34D45" stroke-width="2.5" stroke-linecap="round" stroke-linejoin="round"/>
</g>
</svg>
