<svg width="20" height="23" viewBox="0 0 20 23" fill="none" xmlns="http://www.w3.org/2000/svg">
<path d="M19.7691 9.76714L10.5198 0.386829C10.4329 0.298734 10.3155 0.25 10.1925 0.25V0.25C10.0696 0.25 9.95214 0.299671 9.86523 0.387767L0.643654 9.76714C0.511441 9.90116 0.47261 10.1027 0.543801 10.2779C0.615917 10.4532 0.784187 10.5666 0.970948 10.5666H6.05604V22.2814C6.05604 22.5401 6.26314 22.75 6.51832 22.75H13.9148C14.17 22.75 14.3771 22.5401 14.3771 22.2814V10.5666H19.4428C19.6295 10.5666 19.7978 10.4522 19.8699 10.277C19.942 10.1017 19.9013 9.90116 19.7691 9.76714Z" fill="url(#paint0_linear_1_245)"/>
<defs>
<linearGradient id="paint0_linear_1_245" x1="0.0454234" y1="4.43213" x2="0.0454234" y2="28.0069" gradientUnits="userSpaceOnUse">
<stop stop-color="#227F6A" stop-opacity="0.5"/>
<stop offset="1" stop-color="#0C1212" stop-opacity="0.261883"/>
</linearGradient>
</defs>
</svg>
