<svg width="22" height="22" viewBox="0 0 22 22" fill="none" xmlns="http://www.w3.org/2000/svg">
<path d="M4.95969 8.24999C5.21269 8.24999 5.41769 8.04499 5.41769 7.79199C5.41769 7.71199 5.39769 7.63799 5.36169 7.57199L4.69669 4.58399H7.79269C8.04569 4.58399 8.25069 4.37799 8.25069 4.12499C8.25069 3.96899 8.22169 3.81899 8.20469 3.66699H3.55469L4.57369 8.24999H4.95969Z" fill="white"/>
<path d="M2.536 3.308C2.506 3.172 2.539 3.031 2.626 2.922C2.713 2.814 2.844 2.75 2.983 2.75H7.997C7.428 1.153 5.917 0 4.127 0C1.85 0 0 1.852 0 4.125C0 6.227 1.587 7.948 3.622 8.2L2.536 3.308Z" fill="white"/>
<path d="M18.7928 3.66699H15.8478L15.4408 4.58399H18.2208L14.7598 20.167H8.15981L4.69881 4.58399H14.4378L14.5708 4.28399L14.8448 3.66699H4.12581C3.98681 3.66699 3.85581 3.72999 3.76881 3.83799C3.68181 3.94799 3.64881 4.08799 3.67881 4.22399L7.34581 20.724C7.39081 20.934 7.57881 21.084 7.79281 21.084H15.1258C15.3408 21.084 15.5258 20.934 15.5738 20.724L19.2398 4.22399C19.2698 4.08899 19.2378 3.94699 19.1498 3.83799C19.0628 3.72999 18.9318 3.66699 18.7928 3.66699Z" fill="white"/>
<path d="M13.8102 8.25L9.20722 18.606C9.13122 18.777 8.96422 18.878 8.78722 18.878C8.72522 18.878 8.66222 18.865 8.60222 18.838C8.37122 18.736 8.26622 18.465 8.36922 18.234L12.8072 8.25H4.57422L7.34622 20.724C7.39122 20.934 7.57922 21.084 7.79322 21.084H15.1262C15.3412 21.084 15.5262 20.934 15.5742 20.724L18.3462 8.25H13.8102Z" fill="white"/>
<path d="M9.62461 19.25C9.56261 19.25 9.49961 19.238 9.43861 19.21C9.20861 19.108 9.10361 18.837 9.20661 18.606L16.5396 2.10598C16.5826 2.00898 16.6586 1.92998 16.7526 1.88198L20.4196 0.0489802C20.6456 -0.0630198 20.9216 0.0279802 21.0346 0.25398C21.1486 0.48098 21.0556 0.75598 20.8296 0.86898L17.3096 2.62898L10.0436 18.979C9.96861 19.149 9.80061 19.25 9.62461 19.25Z" fill="white"/>
</svg>
