<svg width="14" height="15" viewBox="0 0 14 15" fill="none" xmlns="http://www.w3.org/2000/svg">
<path fill-rule="evenodd" clip-rule="evenodd" d="M5.33345 6.83329H1.00002C0.446676 6.83329 0 6.38561 0 5.83326V2.16652C0 1.24617 0.746683 0.499817 1.6667 0.499817H5.33345C5.88679 0.499817 6.33347 0.947493 6.33347 1.49984V5.83326C6.33347 6.38561 5.88679 6.83329 5.33345 6.83329Z" fill="#9B9B9B"/>
<path fill-rule="evenodd" clip-rule="evenodd" d="M13.0004 6.83329H8.66701C8.11367 6.83329 7.66699 6.38561 7.66699 5.83326V1.49984C7.66699 0.947493 8.11367 0.499817 8.66701 0.499817H12.3338C13.2538 0.499817 14.0005 1.24617 14.0005 2.16652V5.83326C14.0005 6.38561 13.5538 6.83329 13.0004 6.83329Z" fill="#9B9B9B"/>
<path fill-rule="evenodd" clip-rule="evenodd" d="M5.33345 14.5001H1.6667C0.746683 14.5001 0 13.7537 0 12.8334V9.16665C0 8.6143 0.446676 8.16663 1.00002 8.16663H5.33345C5.88679 8.16663 6.33347 8.6143 6.33347 9.16665V13.5001C6.33347 14.0524 5.88679 14.5001 5.33345 14.5001Z" fill="#9B9B9B"/>
<path fill-rule="evenodd" clip-rule="evenodd" d="M12.3338 14.5001H8.66701C8.11367 14.5001 7.66699 14.0524 7.66699 13.5001V9.16665C7.66699 8.6143 8.11367 8.16663 8.66701 8.16663H13.0004C13.5538 8.16663 14.0005 8.6143 14.0005 9.16665V12.8334C14.0005 13.7537 13.2538 14.5001 12.3338 14.5001Z" fill="#9B9B9B"/>
</svg>
