<svg width="12" height="12" viewBox="0 0 12 12" fill="none" stroke="white" xmlns="http://www.w3.org/2000/svg">
<path fill-rule="evenodd" clip-rule="evenodd" d="M7.11427 0.353218L0.920556 6.61808L0.0634134 10.5609C0.0208848 10.7555 0.0279522 10.9576 0.0839659 11.1487C0.13998 11.3399 0.243142 11.5138 0.383968 11.6547C0.524794 11.7955 0.698764 11.8987 0.889883 11.9547C1.081 12.0107 1.28313 12.0177 1.4777 11.9752L5.42056 11.1181L11.6228 4.84293C11.8438 4.61961 11.9674 4.31791 11.9666 4.00376C11.9657 3.68961 11.8406 3.38855 11.6186 3.16636L8.80113 0.348075C8.69023 0.237283 8.55854 0.149499 8.41361 0.0897652C8.26869 0.0300319 8.11338 -0.000472378 7.95663 5.52969e-06C7.79988 0.000483437 7.64476 0.0319341 7.5002 0.09255C7.35564 0.153166 7.22449 0.241752 7.11427 0.353218V0.353218ZM2.40856 10.6844L1.35084 9.6275L1.89084 7.14779L4.89084 10.1478L2.40856 10.6844Z" />
</svg>
