<svg width="14" height="18" viewBox="0 0 14 18" fill="none" xmlns="http://www.w3.org/2000/svg">
<path fill-rule="evenodd" clip-rule="evenodd" d="M11.0051 7.37997C10.7178 7.08977 10.7178 6.62691 11.0051 6.34038L13.6393 3.7065C14.1022 3.24364 13.7745 2.45018 13.1199 2.45018H2.46833V1.16446C2.46833 0.657522 2.05727 0.246094 1.54996 0.246094C1.04265 0.246094 0.631592 0.657522 0.631592 1.16446V16.9604C0.631592 17.4673 1.04265 17.8787 1.54996 17.8787C2.05727 17.8787 2.46833 17.4673 2.46833 16.9604V11.2665H13.1199C13.7745 11.2665 14.1022 10.4767 13.6393 10.0138L11.0051 7.37997Z" fill="white"/>
</svg>
