<svg width="22" height="22" viewBox="0 0 22 22" fill="none" xmlns="http://www.w3.org/2000/svg">
<path fill-rule="evenodd" clip-rule="evenodd" d="M10.3125 0C9.55313 0 8.9375 0.615609 8.9375 1.375L8.77238 2.53046C8.62461 3.56503 7.42231 4.06305 6.58625 3.43601L5.65251 2.73569C5.11554 2.19872 4.24494 2.19872 3.70797 2.73569L2.73569 3.70797C2.19872 4.24494 2.19872 5.11554 2.73569 5.65251L3.436 6.58625C4.06305 7.42231 3.56503 8.62461 2.53045 8.77238L1.375 8.9375C0.615609 8.9375 0 9.55313 0 10.3125V11.6875C0 12.4469 0.615609 13.0625 1.375 13.0625L2.53046 13.2276C3.56504 13.3754 4.06306 14.5777 3.43601 15.4137L2.73569 16.3475C2.19872 16.8845 2.19872 17.7551 2.73569 18.292L3.70797 19.2643C4.24494 19.8013 5.11554 19.8013 5.65251 19.2643L6.58625 18.564C7.42231 17.937 8.62461 18.435 8.77238 19.4695L8.9375 20.625C8.9375 21.3844 9.55313 22 10.3125 22H11.6875C12.4469 22 13.0625 21.3844 13.0625 20.625L13.2276 19.4695C13.3754 18.435 14.5777 17.937 15.4137 18.564L16.3475 19.2643C16.8845 19.8013 17.7551 19.8013 18.292 19.2643L19.2643 18.292C19.8012 17.7551 19.8012 16.8845 19.2643 16.3475L18.564 15.4137C17.937 14.5777 18.435 13.3754 19.4695 13.2276L20.625 13.0625C21.3844 13.0625 22 12.4469 22 11.6875V10.3125C22 9.55313 21.3844 8.9375 20.625 8.9375L19.4695 8.77238C18.435 8.62461 17.937 7.42231 18.564 6.58625L19.2643 5.65251C19.8012 5.11554 19.8012 4.24494 19.2643 3.70797L18.292 2.73569C17.7551 2.19872 16.8845 2.19872 16.3475 2.73569L15.4137 3.43601C14.5777 4.06305 13.3754 3.56503 13.2276 2.53046L13.0625 1.375C13.0625 0.615609 12.4469 0 11.6875 0H10.3125ZM11 13.75C12.5187 13.75 13.75 12.5187 13.75 11C13.75 9.48127 12.5187 8.25 11 8.25C9.48127 8.25 8.25 9.48127 8.25 11C8.25 12.5187 9.48127 13.75 11 13.75Z" fill="#E34D45"/>
</svg>
