<svg width="36" height="42" viewBox="0 0 36 42" fill="none" xmlns="http://www.w3.org/2000/svg">
<path fill-rule="evenodd" clip-rule="evenodd" d="M31.359 14.7383L35.6842 18.9235C36.0276 19.2558 36.0366 19.8036 35.7043 20.147L29.8635 26.1832C28.1621 27.9414 26.9277 30.0971 26.2721 32.4541L25.1161 36.6101V39.6264C25.1161 40.8771 24.1022 41.891 22.8516 41.891H7.62217C6.3715 41.891 5.35761 40.8771 5.35761 39.6264V36.6101L2.70564 15.046C2.5852 14.067 2.36634 13.1025 2.05248 12.1675L0.0452379 6.18832C-0.106862 5.73529 0.137038 5.24487 0.590065 5.09277L4.45908 3.79383C4.91211 3.64165 5.40253 3.88563 5.55463 4.33865L7.25285 9.39706L6.25262 2.38795C6.18512 1.91495 6.51386 1.47674 6.98686 1.40924L11.9862 0.695864C12.4592 0.628364 12.8974 0.957109 12.9649 1.4301L14.2436 10.3916V0.865227C14.2436 0.387409 14.631 0 15.1089 0H20.1588C20.6366 0 21.024 0.387409 21.024 0.865227V9.89329L22.1008 1.48025C22.1615 1.00636 22.5948 0.671318 23.0688 0.731945L28.0991 1.37577C28.5646 1.43534 28.8978 1.85531 28.8499 2.32216L27.271 17.719L30.1356 14.7584C30.4679 14.4151 31.0157 14.4061 31.359 14.7383ZM9.75247 36.61H21.2299V33.104C21.2299 31.324 19.7868 29.8809 18.0066 29.8809H12.9758C11.1956 29.8809 9.75247 31.3238 9.75247 33.104V36.61Z" fill="#262626"/>
</svg>
