<svg width="36" height="36" viewBox="0 0 36 36" fill="none" xmlns="http://www.w3.org/2000/svg">
<path d="M18 0C16.4863 0 15.2073 1.02052 14.8125 2.4094H21.1886C20.7936 1.01046 19.5064 0 18 0Z"/>
<path d="M28.533 5.00659C31.6039 7.34019 33.5907 11.0301 33.5907 15.1758V19.6026C33.7706 19.5564 33.9504 19.5095 34.13 19.4616C34.3959 19.3906 34.6702 19.3547 34.9452 19.3547C35.3051 19.3547 35.6625 19.4179 36 19.5373V15.1759C36.0001 10.4102 32.8558 6.36552 28.533 5.00659L28.533 5.00659Z"/>
<path d="M1.8701 19.4616C2.04968 19.5095 2.22947 19.5564 2.4094 19.6026V15.1758C2.4094 11.0301 4.39622 7.34019 7.46712 5.00659C3.1443 6.36559 0 10.4103 0 15.1758V19.5372C0.33757 19.4178 0.694898 19.3546 1.05476 19.3546C1.32989 19.3547 1.60418 19.3907 1.8701 19.4616Z"/>
<path d="M35.5878 21.6824C35.328 21.4827 34.9902 21.4152 34.6735 21.4996C23.7656 24.4087 12.2344 24.4086 1.32645 21.4996C1.00983 21.4152 0.671977 21.4827 0.412102 21.6824C0.152297 21.882 0 22.191 0 22.5187V28.1671C0 32.5004 3.50733 35.9999 7.83281 35.9999H28.1672C32.5004 35.9999 36 32.4928 36 28.1671V22.5187C36 22.191 35.8476 21.882 35.5878 21.6824Z"/>
<path fill-rule="evenodd" clip-rule="evenodd" d="M18.0001 21.572C13.46 21.572 8.93724 21.0792 4.5188 20.1057V15.1759C4.5188 9.29956 9.29956 4.5188 15.1759 4.5188H20.8243C26.7006 4.5188 31.4813 9.29956 31.4813 15.1759V20.1057C27.0629 21.0792 22.5402 21.572 18.0001 21.572ZM13.873 13.6317C13.5193 13.4903 13.1167 13.5504 12.82 13.7894C12.5232 14.0282 12.3783 14.4085 12.4409 14.7844L13.0057 18.1735C13.1015 18.7481 13.6448 19.1364 14.2195 19.0404C14.7941 18.9447 15.1822 18.4012 15.0864 17.8267L14.8297 16.2863L15.9138 16.7199C16.423 16.9236 17.0035 16.703 17.2488 16.2123L18 14.71L18.7514 16.2123C18.9967 16.7028 19.5771 16.9235 20.0864 16.7198L21.1705 16.2862L20.9138 17.8266C20.818 18.4012 21.2061 18.9446 21.7807 19.0404C22.3555 19.1363 22.8987 18.748 22.9945 18.1734L23.5593 14.7844C23.6219 14.4086 23.477 14.0282 23.1802 13.7894C22.8835 13.5504 22.4809 13.4903 22.1272 13.6317L20.204 14.401L18.9435 11.88C18.7647 11.5226 18.3996 11.2969 18.0001 11.2969C17.6006 11.2969 17.2354 11.5226 17.0567 11.88L15.7962 14.401L13.873 13.6317Z"/>
</svg>
