<svg width="19" height="19" viewBox="0 0 19 19" fill="none" xmlns="http://www.w3.org/2000/svg" stroke="#797979">
<path d="M7 17H3.66667C2.74619 17 2 16.2538 2 15.3333V3.66667C2 2.74619 2.74619 2 3.66667 2H7"  stroke-width="2.5" stroke-linecap="round" stroke-linejoin="round"/>
<path d="M12.8335 13.6666L17.0002 9.49992L12.8335 5.33325" stroke-width="2.5" stroke-linecap="round" stroke-linejoin="round"/>
<path d="M16.9998 9.49992H6.99976" stroke-width="2.5" stroke-linecap="round" stroke-linejoin="round"/>
</svg>
