<svg width="46" height="46" viewBox="0 0 46 46" fill="none" xmlns="http://www.w3.org/2000/svg">
<g id="slot-machine">
<path id="Shape" fill-rule="evenodd" clip-rule="evenodd" d="M44.6523 11.3562H11.4523C10.7079 11.3562 10.1046 11.9598 10.1046 12.7039V30.409C10.1046 31.1534 10.7079 31.7567 11.4523 31.7567H44.6523C45.3967 31.7567 46 31.1534 46 30.409V12.7039C46 11.9598 45.3967 11.3562 44.6523 11.3562ZM17.2275 28.6779C16.4832 28.6779 15.8799 28.0746 15.8799 27.3303V15.7826C15.8799 15.0382 16.4832 14.4349 17.2275 14.4349H38.8799C39.6239 14.4349 40.2275 15.0382 40.2275 15.7826V27.3303C40.2275 28.0746 39.6239 28.6779 38.8799 28.6779H17.2275Z" fill="white"/>
<path id="Path" d="M23.0977 17.1301H18.5756V25.9825H23.0977V17.1301Z" fill="white"/>
<path id="Path_2" d="M30.3164 17.1301H25.7944V25.9825H30.3164V17.1301Z" fill="white"/>
<path id="Path_3" d="M37.5312 17.1301H33.0089V25.9825H37.5312V17.1301Z" fill="white"/>
<path id="Shape_2" fill-rule="evenodd" clip-rule="evenodd" d="M41.7656 46.0001C42.5096 46.0001 43.1133 45.3968 43.1133 44.6525V34.4524H12.9918V44.6525C12.9918 45.3968 13.595 46.0001 14.3394 46.0001H41.7656ZM20.1126 37.5309H22.9995C23.7439 37.5309 24.3472 38.1342 24.3472 38.8786C24.3472 39.6226 23.7439 40.2263 22.9995 40.2263H20.1126C19.3682 40.2263 18.7649 39.6226 18.7649 38.8786C18.7649 38.1342 19.3682 37.5309 20.1126 37.5309Z" fill="#9B9B9B"/>
<path id="Path_4" d="M12.9918 7.12152C12.9918 3.19472 16.1861 0 20.1133 0H35.9918C39.9186 0 43.1133 3.19472 43.1133 7.12152V8.6608H12.9918V7.12152Z" fill="#9B9B9B"/>
<path id="Path_5" d="M5.5831 12.4751V20.2087H7.41016V22.904H4.23544C3.49142 22.904 2.88779 22.3007 2.88779 21.5563V12.4751C3.32402 12.5614 3.77464 12.6078 4.23544 12.6078C4.69659 12.6078 5.14687 12.5614 5.5831 12.4751Z" fill="white"/>
<path id="Path_6" d="M4.23416 1.4436C6.56905 1.4436 8.46875 3.34331 8.46875 5.67819C8.46875 8.01308 6.56905 9.91278 4.23416 9.91278C1.89928 9.91278 -0.000427246 8.01308 -0.000427246 5.67819C-0.000427246 3.34331 1.89928 1.4436 4.23416 1.4436Z" fill="white"/>
</g>
</svg>
