[
  {
    "name": "Cyrus Raider",
    "avatar": "mocks/img/avatar.png",
    "clubName": "Ночные байкеры",
    "vehicleName": "Infinity",
    "vehicleAvatar": "mocks/img/shop/cars/car1.png",
    "wins": 345,
    "losses": 321
  },
  {
    "name": "Meng Ru",
    "avatar": "mocks/img/user2.jpeg",
    "clubName": "Дневные байкеры",
    "vehicleName": "Vehicle 2.0",
    "vehicleAvatar": "mocks/img/shop/cars/car1.png",
    "wins": 32,
    "losses": 15
  },
  {
    "name": "Meng Ru",
    "avatar": "mocks/img/user2.jpeg",
    "clubName": "Ночные байкеры",
    "vehicleName": "Vehicle 2.0",
    "vehicleAvatar": "mocks/img/shop/cars/car3.png",
    "wins": 32,
    "losses": 15
  },
  {
    "name": "Meng Ru",
    "avatar": "mocks/img/user2.jpeg",
    "clubName": "Ночные байкеры",
    "vehicleName": "Vehicle 2.0",
    "vehicleAvatar": "mocks/img/shop/cars/car2.png",
    "wins": 32,
    "losses": 15
  },
  {
    "name": "Meng Ru",
    "avatar": "mocks/img/user2.jpeg",
    "clubName": "Ночные байкеры",
    "vehicleName": "Vehicle 2.0",
    "vehicleAvatar": "mocks/img/shop/cars/car4.png",
    "wins": 32,
    "losses": 15
  },
  {
    "name": "Meng Ru",
    "avatar": "mocks/img/user2.jpeg",
    "clubName": "Ночные байкеры",
    "vehicleName": "Vehicle 2.0",
    "vehicleAvatar": "mocks/img/shop/cars/car1.png",
    "wins": 32,
    "losses": 15
  },
  {
    "name": "Meng Ru",
    "avatar": "mocks/img/user2.jpeg",
    "clubName": "Ночные байкеры",
    "vehicleName": "Vehicle 2.0",
    "vehicleAvatar": "mocks/img/shop/cars/car1.png",
    "wins": 32,
    "losses": 15
  },
  {
    "name": "Meng Ru",
    "avatar": "mocks/img/user2.jpeg",
    "clubName": "Ночные байкеры",
    "vehicleName": "Vehicle 2.0",
    "vehicleAvatar": "mocks/img/shop/cars/car1.png",
    "wins": 32,
    "losses": 15
  },
  {
    "name": "Meng Ru",
    "avatar": "mocks/img/user2.jpeg",
    "clubName": "Ночные байкеры",
    "vehicleName": "Vehicle 2.0",
    "vehicleAvatar": "mocks/img/shop/cars/car1.png",
    "wins": 32,
    "losses": 15
  },
  {
    "name": "Meng Ru",
    "avatar": "mocks/img/user2.jpeg",
    "clubName": "Ночные байкеры",
    "vehicleName": "Vehicle 2.0",
    "vehicleAvatar": "mocks/img/shop/cars/car1.png",
    "wins": 32,
    "losses": 15
  },
  {
    "name": "Meng Ru",
    "avatar": "mocks/img/user2.jpeg",
    "clubName": "Ночные байкеры",
    "vehicleName": "Vehicle 2.0",
    "vehicleAvatar": "mocks/img/shop/cars/car1.png",
    "wins": 32,
    "losses": 15
  },
  {
    "name": "Meng Ru",
    "avatar": "mocks/img/user2.jpeg",
    "clubName": "Ночные байкеры",
    "vehicleName": "Vehicle 2.0",
    "vehicleAvatar": "mocks/img/shop/cars/car1.png",
    "wins": 32,
    "losses": 15
  }
]