{
  "questId": 1,
  "id": 0,
  "isCompleted": true,
  "title": "Победить всех врагов",
  "description": "В максимальной комплектации у теслы, должен быть крюк, который бы\nвыстреливал в мимо проезжающую фуру и цеплялась за неё)",
  "keys": [
    {
      "key": "W",
      "title": "Задать маршрут"
    },
    {
      "key": "L",
      "title": "Сбросить маршрут"
    }
  ]
}