<svg width="31" height="31" viewBox="0 0 31 31" fill="none" xmlns="http://www.w3.org/2000/svg">
<path d="M27.4041 16.2585L21.977 17.712L19.8851 16.5052V14.2407L21.9531 13.0531L27.404 14.5136C27.5136 14.5429 27.6237 14.5573 27.7328 14.5573C28.2927 14.5573 28.805 14.1834 28.9563 13.617C29.1377 12.9401 28.7364 12.2445 28.0596 12.0634L25.0713 11.2627L27.826 9.68109C28.4332 9.33235 28.6433 8.55711 28.2945 7.94968C27.9446 7.34225 27.1709 7.1318 26.5634 7.48138L23.803 9.0667L24.6035 6.07739C24.7846 5.40071 24.3839 4.70496 23.7068 4.52383C23.0341 4.34739 22.3357 4.74425 22.1543 5.42048L20.6998 10.8478L18.6188 12.0429L16.6461 10.9023V8.50906L20.6354 4.51983C21.1306 4.02435 21.1306 3.2218 20.6354 2.72626C20.14 2.23084 19.3377 2.23084 18.8419 2.72626L16.6461 4.92204V1.73439C16.6462 1.03407 16.0781 0.466187 15.3778 0.466187C14.6775 0.466187 14.1095 1.03401 14.1095 1.73439V4.90632L11.9297 2.72626C11.4343 2.23084 10.6317 2.23084 10.1362 2.72626C9.64075 3.22174 9.64075 4.02429 10.1362 4.51983L14.1095 8.49315V10.9116L12.1518 12.041L10.0708 10.847L8.61732 5.42055C8.43625 4.74432 7.74108 4.34636 7.06492 4.52389C6.38817 4.70502 5.98654 5.40077 6.16787 6.07745L6.96829 9.06625L4.20798 7.48138C3.59945 7.13174 2.82485 7.34173 2.47663 7.95C2.12808 8.55757 2.33826 9.33229 2.94563 9.68103L5.70015 11.2626L2.71181 12.0633C2.035 12.2444 1.6335 12.9401 1.81476 13.6169C1.96646 14.1833 2.47869 14.5573 3.03865 14.5573C3.1477 14.5573 3.25785 14.5428 3.36774 14.5136L8.81933 13.0525L10.8851 14.2385L10.8872 16.5052L8.79459 17.7141L3.36774 16.2585C2.6957 16.0821 1.99628 16.4794 1.81476 17.1554C1.6335 17.832 2.035 18.5278 2.71181 18.708L5.6892 19.5065L2.94248 21.0922C2.33614 21.4427 2.12808 22.2176 2.47875 22.824C2.71367 23.2322 3.13984 23.4581 3.57767 23.4581C3.79263 23.4581 4.0108 23.4047 4.21068 23.2877L6.97132 21.6946L6.16787 24.6948C5.98654 25.3726 6.38817 26.0662 7.06492 26.2485C7.17449 26.2782 7.28457 26.2922 7.39369 26.2922C7.95339 26.2922 8.46562 25.9177 8.61732 25.3509L10.078 19.9011L12.1555 18.7024L14.1095 19.8299V22.2793L10.1362 26.2527C9.64075 26.7481 9.64075 27.5505 10.1362 28.0462C10.3839 28.2939 10.7078 28.4167 11.0329 28.4167C11.3568 28.4167 11.6819 28.2939 11.9297 28.0462L14.1095 25.8662V29.0371C14.1095 29.7387 14.6775 30.3053 15.3778 30.3053C16.0781 30.3053 16.6462 29.7386 16.6462 29.0371V25.8504L18.842 28.0462C19.0897 28.2939 19.4136 28.4167 19.7387 28.4167C20.0638 28.4167 20.3878 28.2939 20.6354 28.0462C21.1307 27.5506 21.1307 26.7482 20.6354 26.2527L16.6462 22.2634V19.8397L18.6169 18.7022L20.6939 19.9009L22.1546 25.3508C22.3061 25.9176 22.8183 26.2921 23.3779 26.2921C23.4867 26.2921 23.5971 26.278 23.7069 26.2483C24.384 26.0661 24.7847 25.3725 24.6036 24.6947L23.7993 21.6945L26.5609 23.2876C26.7609 23.4044 26.979 23.458 27.194 23.458C27.6318 23.458 28.0579 23.232 28.2929 22.8239C28.6435 22.2175 28.4355 21.4427 27.8291 21.092L25.0824 19.5067L28.0597 18.708C28.7366 18.5279 29.1379 17.832 28.9565 17.1555C28.7763 16.4794 28.0798 16.0813 27.4041 16.2585ZM17.3485 16.5052L15.3857 17.6389L13.4242 16.5052L13.422 14.2365L15.3857 13.1037L17.3485 14.2382V16.5052Z" fill="#3F70ED"/>
</svg>
