<svg width="468" height="425" viewBox="0 0 468 425" fill="none" xmlns="http://www.w3.org/2000/svg">
<path d="M196.447 348.106L196.396 348.08L196.342 348.06L193.997 347.207L193.655 348.147L188.965 346.44L189.307 345.5L184.617 343.794L184.275 344.734L179.585 343.027L179.927 342.087L175.237 340.381L174.895 341.321L170.205 339.614L170.547 338.674L165.857 336.968L165.515 337.908L160.826 336.201L161.168 335.261L156.478 333.555L156.136 334.495L151.446 332.788L151.788 331.848L147.098 330.142L146.756 331.082L142.066 329.375L142.408 328.435L137.718 326.729L137.376 327.669L132.686 325.962L133.028 325.022L128.338 323.316L127.996 324.256L123.306 322.549L123.648 321.609L118.958 319.903L118.616 320.843L113.926 319.136L114.268 318.196L109.578 316.49L109.236 317.43L104.547 315.723L104.888 314.783L100.199 313.077L99.8566 314.017L95.1667 312.31L95.5086 311.37L90.8187 309.664L90.4768 310.604L85.7869 308.897L86.1288 307.957L81.4389 306.251L81.0969 307.19L76.407 305.484L76.749 304.544L72.059 302.838L71.7171 303.777L67.0272 302.071L67.3691 301.131L62.6792 299.425L62.3373 300.364L57.6473 298.658L57.9893 297.718L53.2994 296.012L52.9574 296.951L48.2675 295.245L48.6094 294.305L43.9195 292.599L43.5776 293.538L38.8877 291.832L39.2296 290.892L34.5397 289.186L34.1977 290.125L29.5078 288.419L29.8498 287.479L27.5048 286.626C26.725 286.342 25.9586 286.035 25.2062 285.707L24.8057 286.623C23.2419 285.939 21.737 285.163 20.2966 284.301L20.8099 283.443C19.3857 282.591 18.0261 281.654 16.7366 280.64L16.1185 281.426C14.7832 280.376 13.5213 279.246 12.3385 278.044L13.0512 277.343C11.8918 276.164 10.8103 274.916 9.81249 273.605L9.01681 274.211C7.99175 272.864 7.05281 271.454 6.20593 269.989L7.0717 269.488C6.24731 268.062 5.51241 266.582 4.87273 265.058L3.95065 265.445C3.29803 263.89 2.74203 262.29 2.28846 260.653L3.25214 260.386C2.8141 258.805 2.47406 257.19 2.23752 255.547L1.24773 255.689C1.00849 254.028 0.872473 252.34 0.845085 250.634L1.84496 250.618C1.83178 249.797 1.84439 248.971 1.88342 248.142L1.9987 245.694L0.999809 245.647L1.23039 240.75L2.22928 240.797L2.45986 235.9L1.46096 235.853L1.69154 230.956L2.69043 231.003L2.92101 226.106L1.92212 226.059L2.15269 221.162L3.15159 221.209L3.38216 216.312L2.38327 216.265L2.61385 211.368L3.61274 211.415L3.84332 206.518L2.84442 206.471L3.075 201.574L4.07389 201.621L4.30447 196.724L3.30558 196.677L3.53615 191.78L4.53505 191.827L4.76562 186.93L3.76673 186.883L3.99731 181.986L4.9962 182.033L5.22678 177.136L4.22788 177.089L4.45846 172.192L5.45735 172.239L5.68793 167.342L4.68904 167.295L4.91961 162.398L5.91851 162.445L6.14908 157.548L5.15019 157.501L5.38077 152.604L6.37966 152.651L6.61024 147.754L5.61134 147.707L5.84192 142.81L6.84081 142.857L7.07139 137.96L6.0725 137.913L6.30307 133.016L7.30197 133.063L7.53254 128.166L6.53365 128.119L6.76423 123.222L7.76312 123.269L7.9937 118.372L6.9948 118.325L7.22538 113.428L8.22427 113.475L8.45485 108.578L7.45596 108.531L7.68653 103.634L8.68542 103.681L8.916 98.7837L7.91711 98.7367L8.14768 93.8397L9.14658 93.8867L9.37715 88.9897L8.37826 88.9426L8.60884 84.0456L9.60773 84.0927L9.72302 81.6442C9.75965 80.8662 9.81923 80.0932 9.90117 79.3259L8.90683 79.2197C9.07688 77.6273 9.34088 76.0589 9.69394 74.5208L10.6686 74.7446C11.0171 73.2263 11.4546 71.7384 11.9763 70.2876L11.0352 69.9492C11.5748 68.4485 12.202 66.9863 12.9117 65.5696L13.8058 66.0175C14.5011 64.6297 15.2776 63.2866 16.1302 61.9951L15.2957 61.4442C16.1715 60.1177 17.1255 58.8442 18.1525 57.631L18.9157 58.2771C19.9156 57.0959 20.9864 55.9733 22.1229 54.9161L21.4418 54.1839C22.602 53.1046 23.829 52.0918 25.1176 51.1523L25.7068 51.9603C26.9526 51.052 28.2576 50.2141 29.6167 49.453L29.1281 48.5804C30.505 47.8094 31.9361 47.1153 33.4165 46.5047L33.7978 47.4291C34.5112 47.1349 35.2363 46.8605 35.9726 46.6067L38.3772 45.778L38.0514 44.8326L42.8606 43.1752L43.1864 44.1206L47.9956 42.4632L47.6698 41.5178L52.4789 39.8604L52.8047 40.8058L57.6139 39.1484L57.2881 38.203L62.0972 36.5456L62.4231 37.491L67.2322 35.8336L66.9064 34.8882L71.7156 33.2308L72.0414 34.1762L76.8505 32.5188L76.5247 31.5734L81.3339 29.916L81.6597 30.8614L86.4689 29.204L86.143 28.2586L90.9522 26.6012L91.278 27.5466L96.0872 25.8893L95.7614 24.9438L100.571 23.2864L100.896 24.2319L105.706 22.5745L105.38 21.629L110.189 19.9716L110.515 20.9171L115.324 19.2597L114.998 18.3142L119.807 16.6568L120.133 17.6023L124.942 15.9449L124.616 14.9995L129.426 13.3421L129.751 14.2875L134.561 12.6301L134.235 11.6847L139.044 10.0273L139.37 10.9727L144.179 9.3153L143.853 8.36987L148.662 6.71247L148.988 7.6579L153.797 6.00051L153.471 5.05508L158.28 3.39768L158.606 4.34311L161.011 3.51441C161.762 3.25547 162.518 3.02065 163.276 2.80968L163.008 1.84628C164.582 1.40823 166.169 1.07036 167.761 0.830312L167.91 1.81913C169.481 1.58205 171.057 1.44285 172.629 1.39914L172.602 0.399522C174.228 0.354291 175.85 0.408725 177.459 0.560317L177.366 1.55591C178.942 1.70444 180.506 1.94863 182.048 2.28602L182.262 1.30913C183.846 1.65569 185.408 2.09812 186.938 2.63386L186.608 3.57771C188.098 4.09927 189.558 4.71151 190.978 5.41196L191.42 4.51509C192.87 5.22997 194.28 6.03445 195.641 6.92601L195.093 7.76252C196.408 8.62419 197.677 9.56928 198.891 10.5954L199.536 9.83175C200.766 10.8708 201.94 11.9908 203.05 13.1895L202.317 13.8692C202.852 14.4465 203.372 15.0425 203.876 15.6571L205.442 17.567L206.215 16.9329L209.347 20.7527L208.574 21.3868L211.706 25.2065L212.479 24.5725L215.612 28.3922L214.838 29.0263L217.971 32.8461L218.744 32.212L221.876 36.0318L221.103 36.6659L224.235 40.4857L225.008 39.8516L228.141 43.6714L227.367 44.3055L230.499 48.1253L231.273 47.4912L234.405 51.311L233.632 51.945L236.764 55.7648L237.537 55.1307L240.669 58.9505L239.896 59.5846L243.028 63.4044L243.802 62.7703L246.934 66.5901L246.161 67.2242L247.727 69.1341L247.739 69.1491L247.752 69.1636L249.471 71.1011L250.219 70.4375L253.656 74.3125L252.908 74.9761L256.346 78.8511L257.094 78.1875L260.531 82.0625L259.783 82.7261L263.221 86.6011L263.969 85.9375L267.406 89.8125L266.658 90.4761L270.096 94.3511L270.844 93.6875L274.281 97.5625L273.533 98.2261L276.971 102.101L277.719 101.438L281.156 105.312L280.408 105.976L283.846 109.851L284.594 109.188L288.031 113.062L287.283 113.726L290.721 117.601L291.469 116.937L294.906 120.812L294.158 121.476L297.596 125.351L298.344 124.688L301.781 128.562L301.033 129.226L304.471 133.101L305.219 132.438L308.656 136.312L307.908 136.976L311.346 140.851L312.094 140.188L315.531 144.062L314.783 144.726L318.221 148.601L318.969 147.938L322.406 151.812L321.658 152.476L325.096 156.351L325.844 155.688L329.281 159.562L328.533 160.226L330.252 162.164L330.289 162.205L330.33 162.243L332.134 163.868L332.803 163.125L336.409 166.376L335.74 167.119L339.346 170.37L340.016 169.627L343.622 172.878L342.952 173.621L346.558 176.872L347.228 176.129L350.834 179.38L350.165 180.123L353.771 183.374L354.44 182.631L358.047 185.882L357.377 186.625L360.983 189.876L361.653 189.133L365.259 192.384L364.59 193.127L368.196 196.377L368.865 195.635L372.472 198.886L371.802 199.628L375.408 202.879L376.078 202.137L379.684 205.388L379.014 206.13L382.621 209.381L383.29 208.638L386.896 211.889L386.227 212.632L389.833 215.883L390.503 215.14L394.109 218.391L393.439 219.134L397.046 222.385L397.715 221.642L401.321 224.893L400.652 225.636L404.258 228.887L404.928 228.144L408.534 231.395L407.864 232.138L411.47 235.389L412.14 234.646L415.746 237.897L415.077 238.64L418.683 241.89L419.352 241.148L422.959 244.399L422.289 245.141L424.092 246.767C424.708 247.322 425.305 247.896 425.882 248.487L426.598 247.788C427.787 249.005 428.895 250.294 429.915 251.647L429.117 252.249C430.114 253.571 431.025 254.955 431.844 256.393L432.713 255.898C433.552 257.37 434.297 258.897 434.943 260.472L434.018 260.851C434.331 261.615 434.62 262.391 434.884 263.176C435.141 263.941 435.401 264.715 435.664 265.498L436.612 265.18C437.125 266.708 437.649 268.272 438.183 269.867L437.234 270.184C437.745 271.713 438.265 273.271 438.792 274.852L439.74 274.537C440.252 276.074 440.771 277.635 441.294 279.213L440.345 279.528C440.857 281.072 441.374 282.634 441.894 284.209L442.844 283.896C443.356 285.445 443.871 287.008 444.388 288.581L443.438 288.893C443.949 290.447 444.461 292.01 444.975 293.579L445.925 293.268C446.435 294.825 446.946 296.388 447.456 297.954L446.505 298.263C447.014 299.825 447.522 301.389 448.028 302.951L448.979 302.643C449.487 304.21 449.993 305.775 450.496 307.336L449.544 307.642C450.05 309.213 450.553 310.779 451.052 312.336L452.004 312.031C452.509 313.606 453.009 315.173 453.503 316.727L452.55 317.03C453.052 318.609 453.548 320.175 454.037 321.724L454.991 321.423C455.492 323.011 455.985 324.582 456.469 326.131L455.515 326.429C456.013 328.024 456.502 329.596 456.979 331.14L457.935 330.845C458.43 332.446 458.913 334.018 459.382 335.556L458.426 335.848C458.916 337.457 459.392 339.028 459.85 340.556L460.808 340.268C461.298 341.9 461.768 343.482 462.215 345.008L461.256 345.289C461.737 346.931 462.193 348.506 462.62 350.006L463.582 349.733C464.06 351.414 464.502 353.002 464.904 354.484L463.938 354.745C464.409 356.481 464.823 358.069 465.173 359.49L466.144 359.25C466.62 361.179 466.982 362.807 467.211 364.084L466.227 364.261C466.414 365.303 466.5 366.045 466.5 366.5C466.5 366.868 466.317 367.444 465.777 368.26L466.61 368.812C465.895 369.892 464.766 371.128 463.289 372.488L462.611 371.753C461.539 372.741 460.273 373.803 458.834 374.928L459.45 375.716C458.221 376.677 456.874 377.679 455.426 378.716L454.844 377.902C453.559 378.821 452.193 379.767 450.756 380.737L451.315 381.566C449.98 382.466 448.585 383.385 447.14 384.319L446.597 383.479C445.234 384.36 443.825 385.254 442.379 386.159L442.909 387.007C441.518 387.876 440.093 388.754 438.64 389.638L438.12 388.784C436.716 389.638 435.286 390.499 433.835 391.362L434.347 392.221C432.927 393.066 431.488 393.914 430.037 394.762L429.532 393.898C428.101 394.734 426.657 395.57 425.206 396.403L425.704 397.27C424.259 398.1 422.807 398.928 421.354 399.75L420.862 398.88C419.408 399.703 417.952 400.521 416.501 401.332L416.988 402.205C415.522 403.024 414.061 403.835 412.609 404.636L412.126 403.761C410.651 404.574 409.187 405.378 407.739 406.168L408.218 407.046C406.732 407.857 405.264 408.654 403.818 409.435L403.343 408.555C401.849 409.362 400.379 410.152 398.942 410.92L399.414 411.802C397.903 412.61 396.427 413.396 394.995 414.154L394.527 413.271C392.993 414.083 391.509 414.865 390.085 415.612L390.55 416.498C389 417.311 387.52 418.083 386.125 418.808L385.664 417.92C384.058 418.755 382.563 419.527 381.2 420.228L381.657 421.117C379.95 421.994 378.45 422.759 377.194 423.395L376.742 422.503C375.897 422.931 375.163 423.3 374.553 423.606C374.214 423.775 373.615 423.904 372.672 423.907L372.676 424.907C371.406 424.911 369.781 424.707 367.839 424.315L368.037 423.335C366.634 423.051 365.054 422.666 363.309 422.185L363.043 423.149C361.595 422.75 360.041 422.288 358.389 421.766L358.69 420.812C357.232 420.352 355.696 419.845 354.087 419.293L353.763 420.239C352.286 419.733 350.749 419.191 349.157 418.614L349.497 417.674C348.019 417.139 346.492 416.574 344.92 415.981L344.567 416.917C343.087 416.358 341.568 415.776 340.012 415.17L340.375 414.238C338.903 413.666 337.399 413.073 335.864 412.46L335.494 413.389C334.014 412.799 332.507 412.191 330.975 411.566L331.352 410.64C329.87 410.036 328.364 409.417 326.835 408.783L326.452 409.706C324.966 409.09 323.459 408.46 321.932 407.817L322.321 406.895C320.849 406.276 319.36 405.644 317.855 405.002L317.462 405.922C315.983 405.29 314.487 404.648 312.978 403.996L313.375 403.078C311.891 402.438 310.394 401.788 308.885 401.129L308.485 402.046C307.012 401.403 305.527 400.751 304.032 400.093L304.436 399.178C302.958 398.527 301.472 397.869 299.976 397.204L299.57 398.118C298.089 397.46 296.599 396.795 295.102 396.125L295.511 395.212C294.039 394.553 292.56 393.888 291.076 393.218L290.664 394.129C289.187 393.463 287.704 392.791 286.216 392.115L286.63 391.205C285.154 390.534 283.674 389.86 282.191 389.182L281.775 390.091C280.3 389.417 278.822 388.739 277.343 388.059L277.761 387.15C276.285 386.471 274.807 385.79 273.329 385.106L272.91 386.014C271.435 385.332 269.959 384.647 268.485 383.962L268.906 383.055C267.431 382.369 265.957 381.682 264.484 380.994L264.061 381.9C262.587 381.211 261.115 380.521 259.647 379.832L260.072 378.926C258.596 378.233 257.123 377.54 255.654 376.847L255.227 377.752C253.753 377.056 252.282 376.36 250.817 375.666L251.245 374.762C249.772 374.064 248.305 373.367 246.844 372.672L246.414 373.575C244.936 372.872 243.465 372.17 242.002 371.471L242.433 370.568C240.96 369.864 239.496 369.163 238.04 368.464L237.608 369.366C236.132 368.658 234.666 367.952 233.211 367.251L233.645 366.35C232.166 365.638 230.698 364.929 229.244 364.225L228.808 365.125C227.334 364.412 225.874 363.704 224.428 363.002L224.865 362.102C223.387 361.384 221.925 360.672 220.48 359.968L220.041 360.866C218.557 360.142 217.091 359.426 215.645 358.717L216.085 357.819C214.605 357.095 213.147 356.379 211.711 355.673L211.27 356.57C209.795 355.845 208.344 355.13 206.919 354.426L207.362 353.529C205.869 352.791 204.403 352.066 202.969 351.354L202.524 352.25C201.03 351.508 199.569 350.781 198.143 350.07L198.59 349.175C197.866 348.815 197.152 348.458 196.447 348.106Z" fill="url(#paint0_linear_160_7575)" fill-opacity="0.65" stroke="#C4C4C4" stroke-width="2" stroke-miterlimit="1.00651" stroke-dasharray="5 5"/>
<defs>
<linearGradient id="paint0_linear_160_7575" x1="-15" y1="77" x2="473" y2="397" gradientUnits="userSpaceOnUse">
<stop stop-color="#980000"/>
<stop offset="1" stop-color="#B10222"/>
</linearGradient>
</defs>
</svg>
